[en] Introduction to rainette
…
##   Year  President FirstName Party  segment_source cluster
## 1 1789 Washington    George  none 1789-Washington       4
## 2 1789 Washington    George  none 1789-Washington       4
## 3 1789 Washington    George  none 1789-Washington       3
## 4 1789 Washington    George  none 1789-Washington       3
## 5 1789 Washington    George  none 1789-Washington       5
## 6 1789 Washington    George  none 1789-Washington       5

Here, the clusters have been assigned to the segments, not to the original documents as a whole. The clusters_by_doc_table allows to display, for each original document, the number of segment belonging to each cluster :

clusters_by_doc_table(corpus, clust_var = "cluster")

## # A tibble: 59 x 6
##    doc_id          clust_1 clust_2 clust_3 clust_4 clust_5
##    <chr>             <int>   <int>   <int>   <int>   <int>
##  1 1789-Washington       0       0       4      27       6
##  2 1793-Washington       0       0       0       0       4
##  3 1797-Adams            8       0       5      44       2
##  4 1801-Jefferson       18       0       3      21       2
##  5 1805-Jefferson        2       3       6      43       3
##  6 1809-Madison          0       0       4      17       7
##  7 1813-Madison          0       5       5      20       3
##  8 1817-Monroe           2       0      27      47      12
##  9 1821-Monroe           2       0      37      66      10
## 10 1825-Adams            8       2      13      46       8
## # … with 49 more rows

By adding prop = TRUE, the same table is displayed with row percentages :

clusters_by_doc_table(corpus, clust_var = "cluster", prop = TRUE)

## # A tibble: 59 x 6
##    doc_id          clust_1 clust_2 clust_3 clust_4 clust_5
##    <chr>             <dbl>   <dbl>   <dbl>   <dbl>   <dbl>
##  1 1789-Washington    0       0      10.8     73.0   16.2 
##  2 1793-Washington    0       0       0        0    100   
##  3 1797-Adams        13.6     0       8.47    74.6    3.39
##  4 1801-Jefferson    40.9     0       6.82    47.7    4.55
##  5 1805-Jefferson     3.51    5.26   10.5     75.4    5.26
##  6 1809-Madison       0       0      14.3     60.7   25   
##  7 1813-Madison       0      15.2    15.2     60.6    9.09
##  8 1817-Monroe        2.27    0      30.7     53.4   13.6 
##  9 1821-Monroe        1.74    0      32.2     57.4    8.70
## 10 1825-Adams        10.4     2.60   16.9     59.7   10.4 
## # … with 49 more rows
…
